//--- 2017 / 01 / 25 - 신비한 메달 추가
25273#
//--- 2016 / 12 / 07 - 락릿지 추가
25285#
25284#
25283#
25282#
25281#
25280#
25279#
25278#
25276#
25277#
//--- 2015 / 12 / 01 - 원념의파편
23016#
//--- 2015 / 11 19 - 부서진 마법석 추가
6905#
//--- 2015 / 10 / 20 - 카드 추가
4001#
4002#
4003#
4004#
4005#
4006#
4007#
4008#
4009#
4010#
4011#
4012#
4013#
4014#
4015#
4016#
4017#
4018#
4019#
4020#
4021#
4022#
4023#
4024#
4025#
4026#
4027#
4028#
4029#
4030#
4031#
4032#
4033#
4034#
4035#
4036#
4037#
4038#
4039#
4040#
4041#
4042#
4043#
4044#
4045#
4046#
4047#
4048#
4049#
4050#
4051#
4052#
4053#
4054#
4055#
4056#
4057#
4058#
4059#
4060#
4061#
4062#
4063#
4064#
4065#
4066#
4067#
4068#
4069#
4070#
4071#
4072#
4073#
4074#
4075#
4076#
4077#
4078#
4079#
4080#
4081#
4082#
4083#
4084#
4085#
4086#
4087#
4088#
4089#
4090#
4091#
4092#
4093#
4094#
4095#
4096#
4097#
4098#
4099#
4100#
4101#
4102#
4103#
4104#
4105#
4106#
4107#
4108#
4109#
4110#
4111#
4112#
4113#
4114#
4115#
4116#
4117#
4118#
4119#
4120#
4121#
4122#
4123#
4124#
4125#
4126#
4127#
4128#
4129#
4130#
4131#
4132#
4133#
4134#
4135#
4136#
4137#
4138#
4139#
4140#
4141#
4142#
4143#
4144#
4145#
4146#
4147#
4148#
4149#
4150#
4151#
4152#
4153#
4154#
4155#
4156#
4157#
4158#
4159#
4160#
4161#
4162#
4163#
4164#
4165#
4166#
4167#
4168#
4169#
4170#
4171#
4172#
4173#
4174#
4175#
4176#
4177#
4178#
4179#
4180#
4181#
4182#
4183#
4184#
4185#
4186#
4187#
4188#
4189#
4190#
4191#
4192#
4193#
4194#
4195#
4196#
4197#
4198#
4199#
4200#
4201#
4202#
4203#
4204#
4205#
4206#
4207#
4208#
4209#
4210#
4211#
4212#
4213#
4214#
4215#
4216#
4217#
4218#
4219#
4220#
4221#
4222#
4223#
4224#
4225#
4226#
4227#
4228#
4229#
4230#
4231#
4232#
4233#
4234#
4235#
4236#
4237#
4238#
4239#
4240#
4241#
4242#
4243#
4244#
4245#
4246#
4247#
4248#
4249#
4250#
4251#
4252#
4253#
4254#
4255#
4256#
4257#
4258#
4259#
4260#
4261#
4262#
4263#
4264#
4265#
4266#
4267#
4268#
4269#
4270#
4271#
4272#
4273#
4274#
4275#
4276#
4277#
4278#
4279#
4280#
4281#
4282#
4283#
4284#
4285#
4286#
4287#
4288#
4289#
4290#
4291#
4292#
4293#
4294#
4295#
4296#
4297#
4298#
4299#
4300#
4301#
4302#
4303#
4304#
4305#
4306#
4307#
4308#
4309#
4310#
4311#
4312#
4313#
4314#
4315#
4316#
4317#
4318#
4319#
4320#
4321#
4322#
4323#
4324#
4325#
4326#
4327#
4328#
4329#
4330#
4331#
4332#
4333#
4334#
4335#
4336#
4337#
4338#
4339#
4340#
4341#
4342#
4343#
4344#
4345#
4346#
4347#
4348#
4349#
4350#
4351#
4352#
4353#
4354#
4355#
4356#
4357#
4358#
4359#
4360#
4361#
4362#
4363#
4364#
4365#
4366#
4367#
4368#
4369#
4370#
4371#
4372#
4373#
4374#
4375#
4376#
4377#
4378#
4379#
4380#
4381#
4382#
4383#
4384#
4385#
4386#
4387#
4388#
4389#
4390#
4391#
4392#
4393#
4394#
4395#
4396#
4397#
4398#
4399#
4400#
4401#
4402#
4403#
4404#
4405#
4406#
4407#
4408#
4409#
4410#
4411#
4412#
4413#
4414#
4415#
4416#
4417#
4418#
4419#
4420#
4421#
4422#
4423#
4424#
4425#
4426#
4427#
4428#
4429#
4430#
4431#
4432#
4433#
4434#
4435#
4436#
4437#
4438#
4439#
4440#
4441#
4442#
4443#
4444#
4445#
4446#
4447#
4448#
4449#
4450#
4451#
4452#
4453#
4454#
4455#
4456#
4457#
4458#
4459#
4460#
4461#
4462#
4463#
4464#
4465#
4466#
4467#
4468#
4469#
4470#
4471#
4472#
4473#
4474#
4475#
4476#
4477#
4478#
4479#
4480#
4481#
4482#
4483#
4484#
4485#
4486#
4487#
4488#
4489#
4490#
4491#
4492#
4493#
4494#
4495#
4496#
4497#
4498#
4499#
4500#
4501#
4502#
4503#
4504#
4505#
4506#
4507#
4508#
4509#
4510#
4511#
4512#
4513#
4514#
4515#
4516#
4517#
4518#
4519#
4520#
4521#
4522#
4523#
4524#
4525#
4526#
4527#
4528#
4529#
4530#
4531#
4532#
4533#
4534#
4535#
4536#
4537#
4538#
4539#
4540#
4541#
4542#
4543#
4544#
4545#
4546#
4547#
4548#
4549#
4550#
4551#
4552#
4553#
4554#
4555#
4556#
4557#
4558#
4559#
4560#
4561#
4562#
4563#
4564#
4565#
4566#
4567#
4568#
4569#
4570#
4571#
4572#
4573#
4574#
4575#
4576#
4577#
4578#
4579#
4580#
4581#
4582#
4583#
4584#
4585#
4586#
4587#
4588#
4589#
4590#
4591#
4592#
4593#
4594#
4595#
4596#
4597#
4598#
4599#
4600#
4601#
4602#
4603#
4604#
4605#
4606#
4607#
4608#
4609#
4610#
4625#
4626#
4627#
4628#
4629#
4630#
4631#
4632#
4633#
4634#
4635#
4636#
4637#
4638#
4639#
4640#
4641#
4642#
4643#
4644#
4645#
4646#
4647#
4648#
4649#
4650#
4651#
4652#
4653#
4654#
4655#
4656#
4657#
4658#
//--- 2015 / 7 / 9 - 최종수정일
11600#
22847#
22848#
22849#
6921#
6922#
6924#
6936#
6937#
6938#
6939#
6940#
6941#
6942#
6961#
6962#
6905#
//--- 2014 / 12 / 17
12739#
//--- 2014 / 07 / 09
6897#
6898#
6899#
6900#
6901#
6902#
6903#
22770#
22771#
22772#
22773#
22774#
22775#
22776#
//--- 2014 / 04 / 21
6691#
6692#
6693#
6694#
6695#
6696#
12490#
22516#
22534#
11563#
11564#
//--- 2013 / 12 / 23
6832#
11597#
22699#
22679#
22687#
6615#
//--- 2013 / 08 / 02
6750#
6751#
22648#
22649#
6797#
11556#
6770#
6771#
6772#
6773#
6774#
6775#
6776#
6777#
6778#
6779#
6780#
6781#
6782#
11589#
11590#
22620#
22621#

//--- 2013 / 04 / 16
6557#
6558#
6559#
6560#
6561#
12812#
12813#
12814#
12815#
6592#
6594#
6595#
6596#
6597#
6598#
6599#
6600#
6601#
6602#
6603#
6604#
6605#
6668#
7056#
11557#
11558#
6607#
6608#
6609#
6610#
6611#
6612#
6613#
7228#
7229#
7230#
6699#
6700#
6701#
6702#
6703#
6704#
6705#
6706#
6683#
7640#
7642#
7643#
7644#
6521#
6522#
6531#
6557#
6558#
6559#
6560#
6561#
12812#
12813#
12814#
12815#
714#
6381#
6382#
6393#
6394#
6395#
6403#
6404#
6405#
6423#
6469#
6470#
6471#
6493#
6496#
6497#
6498#
6499#
6508#
6509#
6510#
6511#
6512#
6513#
6514#
6515#
6516#
6517#
6518#
6523#
6524#
6525#
7347#
7760#
7762#
7824#
11519#
11520#
11521#
11522#
11523#
11524#
11525#
11526#
11532#
11533#
11534#
11536#
11537#
11547#
11548#
11549#
12329#
12330#
12342#
12343#
12344#
12345#
12348#
12349#
12350#
12351#
12354#
12355#
12356#
12418#
12419#
12422#
12423#
12424#
12425#
12426#
12427#
12428#
12429#
12430#
12431#
12432#
12433#
12434#
12436#
12437#
12475#
12536#
12539#
12561#
12574#
12575#
12576#
12582#
12608#
12609#
12612#
12613#
12614#
12615#
12616#
12617#
12618#
12619#
12620#
12621#
12623#
12675#
12676#
12677#
12678#
12679#
12680#
12683#
12690#
12691#
12692#
12693#
12694#
12695#
12698#
12699#
12700#
12775#

//--- 2010 / 03 / 12
601#
602#
603#
604#
605#
606#
607#
608#
609#
610#
611#
612#
613#
614#
615#
616#
617#
618#
619#
620#
621#
622#
623#
624#
625#
626#
627#
628#
629#
630#
631#
632#
633#
634#
635#
636#
637#
638#
639#
640#
641#
642#
643#
644#
645#
656#
657#
658#
659#
660#
661#
662#
663#
664#
665#
666#
667#
668#
669#
678#
679#
681#
682#
683#
684#
686#
687#
688#
689#
690#
691#
692#
693#
694#
695#
696#
697#
698#
699#
700#
12000#
12001#
12002#
12003#
12004#
12005#
12006#
12007#
12008#
12009#
12010#
12011#
12012#
12013#
12014#
12015#
12016#
12017#
12018#
12020#
12027#
12028#
12029#
12030#
12031#
12032#
12033#
12034#
12040#
12041#
12042#
12043#
12044#
12045#
12046#
12047#
12048#
12049#
12050#
12051#
12052#
12053#
12054#
12055#
12056#
12057#
12058#
12059#
12060#
12061#
12062#
12063#
12064#
12065#
12066#
12067#
12068#
12069#
12070#
12071#
12072#
12073#
12074#
12075#
12076#
12077#
12078#
12079#
12080#
12081#
12082#
12083#
12084#
12085#
12086#
12087#
12088#
12089#
12090#
12091#
12092#
12093#
12094#
12095#
12096#
12097#
12098#
12099#
12100#
12101#
12102#
12103#
12104#
12105#
12106#
12107#
12108#
12109#
12110#
12111#
12112#
12113#
12114#
12115#
12116#
12117#
12118#
12119#
12120#
12121#
12122#
12123#
12124#
12125#
12126#
12127#
12128#
12129#
12130#
12132#
12144#
12145#
12146#
12147#
12148#
12149#
12150#
12151#
12183#
12184#
12185#
12194#
12195#
12196#
12197#
12198#
12241#
12242#
12243#
12246#
12260#
12290#
12291#
12292#
12293#
12341#
12346#
12347#
12353#
12358#
12359#
12360#
12362#
12364#
12365#
12366#
12367#
12368#
12369#
12371#
12372#
12373#
12374#
12376#
12377#
12379#
12383#
12392#
12393#
12394#
12395#
12414#
12717#
12718#
12719#
12720#
12721#
12722#
12723#
12724#
12734#
12735#
12736#
12737#
12738#
506#
507#
508#
509#
510#
511#
512#
513#
514#
515#
516#
517#
518#
519#
520#
521#
522#
523#
525#
526#
528#
529#
530#
531#
532#
533#
534#
535#
536#
537#
538#
539#
544#
548#
549#
550#
551#
553#
564#
566#
567#
568#
569#
570#
571#
572#
574#
576#
577#
578#
579#
580#
581#
582#
584#
587#
591#
592#
593#
594#
595#
11513#
11515#
11516#
11517#
701#
702#
703#
704#
705#
706#
707#
708#
709#
710#
711#
712#
713#
715#
716#
717#
718#
719#
720#
721#
722#
723#
724#
725#
726#
727#
728#
729#
730#
731#
732#
733#
734#
735#
736#
737#
738#
739#
740#
741#
742#
743#
744#
745#
746#
747#
748#
749#
750#
751#
752#
753#
754#
756#
757#
901#
902#
903#
904#
905#
906#
907#
908#
909#
910#
911#
912#
913#
914#
915#
916#
917#
918#
919#
920#
921#
922#
923#
924#
925#
926#
928#
929#
930#
931#
932#
934#
935#
936#
937#
938#
939#
940#
941#
942#
943#
944#
945#
946#
947#
948#
949#
950#
951#
952#
953#
954#
955#
956#
957#
958#
959#
960#
961#
962#
963#
964#
965#
966#
967#
968#
969#
970#
971#
972#
973#
974#
975#
976#
978#
979#
980#
981#
982#
983#
984#
985#
986#
987#
988#
989#
990#
991#
992#
993#
994#
995#
996#
997#
998#
999#
1000#
1001#
1002#
1003#
1004#
1005#
1006#
1007#
1008#
1009#
1010#
1011#
1012#
1013#
1014#
1015#
1016#
1017#
1018#
1019#
1020#
1021#
1022#
1023#
1024#
1025#
1026#
1027#
1028#
1029#
1030#
1031#
1032#
1033#
1034#
1035#
1036#
1037#
1038#
1039#
1040#
1041#
1042#
1043#
1044#
1045#
1046#
1047#
1048#
1049#
1050#
1051#
1052#
1053#
1054#
1055#
1056#
1057#
1058#
1059#
1060#
1061#
1062#
1063#
1064#
1065#
1066#
1067#
1068#
1088#
1089#
1092#
1093#
1094#
1095#
1096#
1097#
1098#
1099#
6001#
6002#
6003#
6004#
6008#
6010#
6020#
6021#
6022#
6023#
6032#
6033#
6073#
6075#
6086#
6087#
6088#
6089#
6090#
6091#
6095#
6096#
6097#
6098#
6099#
6100#
6104#
6105#
6106#
6107#
6108#
6109#
6110#
6111#
6112#
6113#
6114#
6115#
6120#
6123#
6128#
6144#
6145#
6146#
6147#
6186#
6189#
6190#
6191#
6192#
6193#
6194#
6195#
6196#
6197#
6198#
6199#
6200#
6201#
6202#
6203#
6204#
6205#
6210#
6211#
6212#
6213#
6214#
6215#
6216#
6217#
6223#
6224#
6244#
6245#
6246#
6247#
6248#
6249#
6250#
6251#
6252#
6253#
6254#
6255#
6256#
6257#
6258#
6259#
6260#
6261#
6262#
6263#
6264#
6265#
6279#
6280#
6281#
6282#
6283#
6284#
6285#
6297#
6321#
6322#
6323#
6324#
6325#
6326#
6360#
6361#
6362#
6363#
7001#
7002#
7003#
7004#
7005#
7006#
7007#
7008#
7009#
7010#
7011#
7012#
7013#
7014#
7015#
7016#
7017#
7018#
7019#
7020#
7021#
7022#
7023#
7024#
7026#
7027#
7030#
7031#
7032#
7033#
7034#
7035#
7036#
7038#
7041#
7043#
7047#
7048#
7049#
7053#
7054#
7055#
7056#
7057#
7058#
7063#
7064#
7065#
7066#
7067#
7068#
7069#
7070#
7071#
7072#
7073#
7074#
7075#
7076#
7077#
7078#
7079#
7080#
7081#
7082#
7083#
7084#
7085#
7086#
7087#
7088#
7089#
7090#
7091#
7092#
7093#
7094#
7095#
7096#
7097#
7098#
7099#
7100#
7101#
7102#
7103#
7104#
7105#
7106#
7107#
7108#
7109#
7110#
7111#
7112#
7113#
7114#
7115#
7116#
7117#
7118#
7119#
7120#
7121#
7122#
7123#
7124#
7125#
7126#
7127#
7128#
7129#
7130#
7131#
7132#
7133#
7134#
7140#
7141#
7143#
7144#
7147#
7149#
7150#
7151#
7152#
7153#
7154#
7155#
7156#
7157#
7158#
7159#
7160#
7161#
7162#
7163#
7164#
7165#
7166#
7167#
7168#
7169#
7170#
7171#
7172#
7174#
7175#
7182#
7186#
7187#
7188#
7189#
7190#
7191#
7192#
7193#
7194#
7195#
7196#
7197#
7198#
7200#
7201#
7202#
7203#
7204#
7205#
7206#
7207#
7208#
7209#
7210#
7211#
7212#
7213#
7214#
7215#
7216#
7217#
7218#
7219#
7220#
7221#
7222#
7223#
7225#
7226#
7262#
7263#
7264#
7265#
7266#
7267#
7268#
7269#
7270#
7277#
7286#
7289#
7290#
7291#
7292#
7293#
7294#
7295#
7296#
7297#
7298#
7299#
7300#
7301#
7303#
7312#
7315#
7316#
7317#
7318#
7319#
7320#
7321#
7322#
7323#
7325#
7326#
7327#
7340#
7345#
7352#
7353#
7354#
7355#
7356#
7357#
7358#
7359#
7419#
7433#
7434#
7435#
7436#
7437#
7438#
7439#
7440#
7441#
7442#
7443#
7444#
7445#
7446#
7447#
7448#
7449#
7450#
7451#
7452#
7453#
7454#
7455#
7456#
7457#
7472#
7473#
7474#
7475#
7476#
7477#
7478#
7479#
7480#
7481#
7482#
7507#
7510#
7511#
7512#
7513#
7521#
7522#
7523#
7524#
7561#
7562#
7563#
7564#
7565#
7566#
7567#
7568#
7574#
7751#
7752#
7753#
7754#
7830#
7831#
7832#
7833#
7834#
7835#
7836#
7837#
7838#
7931#
7932#
7933#
7934#
7935#
7936#
7937#
7938#
7939#
7940#
11000#
11001#
11002#
11003#
11004#
11005#
11006#
11007#
11008#
11009#
11020#
11021#
11022#
11023#
11024#
//--- 2010 / 03 / 12